{
    "Airbus A320 (MSFS)": "Airbus A320neo",
    "American Champion Scout": "Icon A5",
    "Aviat Pitts Special (MSFS)": "Aviat Pitts Special S2S",
    "Beechcraft Baron 58": "Beechcraft Baron G58",
    "Beechcraft Bonanza A36": "Beechcraft Bonanza G36",
    "Beechcraft King Air 350": "Beechcraft King Air 350i",
    "Boeing 747-400": "Boeing 747-8 Intercontinental",
    "Cessna 152 Aerobat": "Cessna 152 or Cessna 152 Aerobat",
    "Cessna 172 Skyhawk": "Cessna 172 Skyhawk (G1000) or Cessna 172 Skyhawk",
    "Cessna 162 Skycatcher": "Pipistrel Virus SW 121",
    "Cessna 208 Caravan": "Cessna 208B Grand Caravan",
    "Cessna Citation X": "Cessna Citation CJ4 or Cessna Citation Longitude",
    "Cub Crafters XCub (MSFS)": "CubCrafters XCub",
    "Cirrus SR22 G2": "Cirrus SR22",
    "Diamond DA20 Katana": "Diamond DV20",
    "Diamond DA40D DiamondStar": "Diamond DA40 NG or Diamond DA40-TDI",
    "Diamond DA62": "Diamond DA62",
    "Liberty XL2": "JMB VL-3",
    "Murdry CAP 10 (MSFS)": "Robin CAP 10",
    "Piper PA-18 Super Cub": "Zlin Shock Ultra",
    "Robin DR400-100 Cadet (MSFS)": "Robin DR400-Cadet",
    "Savage Cub (MSFS)": "Zlin Savage Cub",
    "Socata TBM 930 (MSFS)": "Daher TBM 930",
    "Vans RV-7/7A": "EXTRA 330LT or Flight Design CTSL"
}